{
    "api_key":">>> INSERT API KEY HERE <<<",
    "debug":true,
    "last_updated":">>> INSERT DATE & TIME HERE (YYY-MM-DD HH:MM:SS) <<<",
    "default_save_folder_path":"./Saved/",
    "channels":[
	{
	    "name":"",
	    "id":"",
	    "save_folder_path":"",
	    "ruleset":{
		"regex":[
		    
		]
	    }
	}
    ]
}
